Estructura_de_computadores/ficheros_p1/alu.vcd
$date
	Wed Oct 23 21:09:20 2024
$end
$version
	Icarus Verilog
$end
$timescale
	10ps
$end
$scope module alu_tb $end
$var wire 1 ! t_z $end
$var wire 1 " t_s $end
$var wire 1 # t_c $end
$var wire 4 $ t_R [3:0] $end
$var reg 1 % error $end
$var reg 1 & error_R $end
$var reg 1 ' error_c $end
$var reg 1 ( error_s $end
$var reg 1 ) error_z $end
$var reg 4 * t_A [3:0] $end
$var reg 4 + t_B [3:0] $end
$var reg 3 , t_Op [2:0] $end
$var reg 1 - t_cin $end
$var integer 32 . errores [31:0] $end
$scope module mat $end
$var wire 4 / A [3:0] $end
$var wire 4 0 B [3:0] $end
$var wire 3 1 Op [2:0] $end
$var wire 1 - c_in $end
$var wire 1 ! zero $end
$var wire 4 2 ul4_out [3:0] $end
$var wire 4 3 sum4_out [3:0] $end
$var wire 1 " sign $end
$var wire 4 4 op2 [3:0] $end
$var wire 4 5 op1 [3:0] $end
$var wire 1 # carry $end
$var wire 4 6 R [3:0] $end
$scope module modulo_logico $end
$var wire 2 7 S [1:0] $end
$var wire 4 8 Out [3:0] $end
$var wire 4 9 B [3:0] $end
$var wire 4 : A [3:0] $end
$scope module cl0 $end
$var wire 2 ; S [1:0] $end
$var wire 1 < a $end
$var wire 1 = b $end
$var wire 1 > outa $end
$var wire 1 ? outn $end
$var wire 1 @ outo $end
$var wire 1 A outx $end
$var wire 1 B out $end
$scope module m $end
$var wire 2 C S [1:0] $end
$var wire 1 > a $end
$var wire 1 @ b $end
$var wire 1 A c $end
$var wire 1 ? d $end
$var reg 1 B out $end
$upscope $end
$upscope $end
$scope module cl1 $end
$var wire 2 D S [1:0] $end
$var wire 1 E a $end
$var wire 1 F b $end
$var wire 1 G outa $end
$var wire 1 H outn $end
$var wire 1 I outo $end
$var wire 1 J outx $end
$var wire 1 K out $end
$scope module m $end
$var wire 2 L S [1:0] $end
$var wire 1 G a $end
$var wire 1 I b $end
$var wire 1 J c $end
$var wire 1 H d $end
$var reg 1 K out $end
$upscope $end
$upscope $end
$scope module cl2 $end
$var wire 2 M S [1:0] $end
$var wire 1 N a $end
$var wire 1 O b $end
$var wire 1 P outa $end
$var wire 1 Q outn $end
$var wire 1 R outo $end
$var wire 1 S outx $end
$var wire 1 T out $end
$scope module m $end
$var wire 2 U S [1:0] $end
$var wire 1 P a $end
$var wire 1 R b $end
$var wire 1 S c $end
$var wire 1 Q d $end
$var reg 1 T out $end
$upscope $end
$upscope $end
$scope module cl3 $end
$var wire 2 V S [1:0] $end
$var wire 1 W a $end
$var wire 1 X b $end
$var wire 1 Y outa $end
$var wire 1 Z outn $end
$var wire 1 [ outo $end
$var wire 1 \ outx $end
$var wire 1 ] out $end
$scope module m $end
$var wire 2 ^ S [1:0] $end
$var wire 1 Y a $end
$var wire 1 [ b $end
$var wire 1 \ c $end
$var wire 1 Z d $end
$var reg 1 ] out $end
$upscope $end
$upscope $end
$upscope $end
$scope module preprocesador $end
$var wire 4 _ A [3:0] $end
$var wire 4 ` B [3:0] $end
$var wire 3 a Op [2:0] $end
$var wire 1 b cpl $end
$var wire 1 c op1_a $end
$var wire 1 d op2_B $end
$var wire 4 e op2_BOut [3:0] $end
$var wire 4 f add1_out [3:0] $end
$var wire 1 g add1 $end
$var wire 4 h BMod [3:0] $end
$var wire 4 i AMod [3:0] $end
$scope module MuxAdd1 $end
$var wire 4 j A [3:0] $end
$var wire 4 k B [3:0] $end
$var wire 1 g s $end
$var reg 4 l Out [3:0] $end
$upscope $end
$scope module Muxop1_A $end
$var wire 4 m A [3:0] $end
$var wire 4 n B [3:0] $end
$var wire 1 c s $end
$var reg 4 o Out [3:0] $end
$upscope $end
$scope module Muxop2_B $end
$var wire 4 p A [3:0] $end
$var wire 4 q B [3:0] $end
$var wire 1 d s $end
$var reg 4 r Out [3:0] $end
$upscope $end
$scope module complementador $end
$var wire 4 s Inp [3:0] $end
$var wire 1 b cpl $end
$var wire 4 t Out [3:0] $end
$upscope $end
$upscope $end
$scope module selector $end
$var wire 4 u B [3:0] $end
$var wire 1 v s $end
$var wire 4 w A [3:0] $end
$var reg 4 x Out [3:0] $end
$upscope $end
$scope module sumador $end
$var wire 4 y A [3:0] $end
$var wire 4 z B [3:0] $end
$var wire 1 - c_in $end
$var wire 1 # c_out $end
$var wire 4 { S [3:0] $end
$upscope $end
$upscope $end
$scope task check $end
$var reg 5 | expected_R [4:0] $end
$var reg 1 } expected_c $end
$var reg 1 ~ expected_s $end
$var reg 1 !" expected_z $end
$upscope $end
$upscope $end
$scope module fa $end
$var wire 1 "" a $end
$var wire 1 #" b $end
$var wire 1 $" c_in $end
$var wire 1 %" sum $end
$var wire 1 &" c_out $end
$upscope $end
$enddefinitions $end
$comment Show the parameter values. $end
$dumpall
$end
#0
$dumpvars
x&"
x%"
z$"
z#"
z""
x!"
x~
x}
bx |
b0 {
b0 z
b0 y
b0 x
b0 w
0v
b0 u
b0 t
b0 s
b0 r
b0 q
b0 p
b0 o
b0 n
b0 m
b0 l
b1 k
b0 j
b0 i
b0 h
0g
b0 f
b0 e
0d
0c
0b
b0 a
b0 `
b0 _
b0 ^
0]
0\
0[
1Z
0Y
0X
0W
b0 V
b0 U
0T
0S
0R
1Q
0P
0O
0N
b0 M
b0 L
0K
0J
0I
1H
0G
0F
0E
b0 D
b0 C
0B
0A
0@
1?
0>
0=
0<
b0 ;
b0 :
b0 9
b0 8
b0 7
b0 6
b0 5
b0 4
b0 3
b0 2
b0 1
b0 0
b0 /
b0 .
0-
b0 ,
b0 +
b0 *
x)
x(
x'
x&
x%
b0 $
0#
0"
1!
$end
#1
0%
0)
0&
1!"
0'
0(
0~
0}
b0 |
#1000
b1 +
b1 0
b1 `
b1 q
#2000
b10 +
b10 0
b10 `
b10 q
#3000
b11 +
b11 0
b11 `
b11 q
#4000
b100 +
b100 0
b100 `
b100 q
#5000
b101 +
b101 0
b101 `
b101 q
#6000
b110 +
b110 0
b110 `
b110 q
#7000
b111 +
b111 0
b111 `
b111 q
#8000
b1000 +
b1000 0
b1000 `
b1000 q
#9000
b1001 +
b1001 0
b1001 `
b1001 q
#10000
b1010 +
b1010 0
b1010 `
b1010 q
#11000
b1011 +
b1011 0
b1011 `
b1011 q
#12000
b1100 +
b1100 0
b1100 `
b1100 q
#13000
b1101 +
b1101 0
b1101 `
b1101 q
#14000
b1110 +
b1110 0
b1110 `
b1110 q
#15000
b1111 +
b1111 0
b1111 `
b1111 q
#16000
0!
b1 $
b1 6
b1 x
1@
1A
b1 3
b1 w
b1 {
1=
b1 4
b1 9
b1 h
b1 t
b1 z
b1 e
b1 r
b1 s
b1 *
b1 /
b1 _
b1 n
b1 p
b0 +
b0 0
b0 `
b0 q
#16001
0!"
b1 |
#17000
b1 +
b1 0
b1 `
b1 q
#18000
b10 +
b10 0
b10 `
b10 q
#19000
b11 +
b11 0
b11 `
b11 q
#20000
b100 +
b100 0
b100 `
b100 q
#21000
b101 +
b101 0
b101 `
b101 q
#22000
b110 +
b110 0
b110 `
b110 q
#23000
b111 +
b111 0
b111 `
b111 q
#24000
b1000 +
b1000 0
b1000 `
b1000 q
#25000
b1001 +
b1001 0
b1001 `
b1001 q
#26000
b1010 +
b1010 0
b1010 `
b1010 q
#27000
b1011 +
b1011 0
b1011 `
b1011 q
#28000
b1100 +
b1100 0
b1100 `
b1100 q
#29000
b1101 +
b1101 0
b1101 `
b1101 q
#30000
b1110 +
b1110 0
b1110 `
b1110 q
#31000
b1111 +
b1111 0
b1111 `
b1111 q
#32000
b10 $
b10 6
b10 x
0@
0A
1I
1J
b10 3
b10 w
b10 {
0=
1F
b10 4
b10 9
b10 h
b10 t
b10 z
b10 e
b10 r
b10 s
b10 *
b10 /
b10 _
b10 n
b10 p
b0 +
b0 0
b0 `
b0 q
#32001
b10 |
#33000
b1 +
b1 0
b1 `
b1 q
#34000
b10 +
b10 0
b10 `
b10 q
#35000
b11 +
b11 0
b11 `
b11 q
#36000
b100 +
b100 0
b100 `
b100 q
#37000
b101 +
b101 0
b101 `
b101 q
#38000
b110 +
b110 0
b110 `
b110 q
#39000
b111 +
b111 0
b111 `
b111 q
#40000
b1000 +
b1000 0
b1000 `
b1000 q
#41000
b1001 +
b1001 0
b1001 `
b1001 q
#42000
b1010 +
b1010 0
b1010 `
b1010 q
#43000
b1011 +
b1011 0
b1011 `
b1011 q
#44000
b1100 +
b1100 0
b1100 `
b1100 q
#45000
b1101 +
b1101 0
b1101 `
b1101 q
#46000
b1110 +
b1110 0
b1110 `
b1110 q
#47000
b1111 +
b1111 0
b1111 `
b1111 q
#48000
b11 $
b11 6
b11 x
1@
1A
b11 3
b11 w
b11 {
1=
b11 4
b11 9
b11 h
b11 t
b11 z
b11 e
b11 r
b11 s
b11 *
b11 /
b11 _
b11 n
b11 p
b0 +
b0 0
b0 `
b0 q
#48001
b11 |
#49000
b1 +
b1 0
b1 `
b1 q
#50000
b10 +
b10 0
b10 `
b10 q
#51000
b11 +
b11 0
b11 `
b11 q
#52000
b100 +
b100 0
b100 `
b100 q
#53000
b101 +
b101 0
b101 `
b101 q
#54000
b110 +
b110 0
b110 `
b110 q
#55000
b111 +
b111 0
b111 `
b111 q
#56000
b1000 +
b1000 0
b1000 `
b1000 q
#57000
b1001 +
b1001 0
b1001 `
b1001 q
#58000
b1010 +
b1010 0
b1010 `
b1010 q
#59000
b1011 +
b1011 0
b1011 `
b1011 q
#60000
b1100 +
b1100 0
b1100 `
b1100 q
#61000
b1101 +
b1101 0
b1101 `
b1101 q
#62000
b1110 +
b1110 0
b1110 `
b1110 q
#63000
b1111 +
b1111 0
b1111 `
b1111 q
#64000
b100 $
b100 6
b100 x
0@
0A
0I
0J
1R
1S
b100 3
b100 w
b100 {
0=
0F
1O
b100 4
b100 9
b100 h
b100 t
b100 z
b100 e
b100 r
b100 s
b100 *
b100 /
b100 _
b100 n
b100 p
b0 +
b0 0
b0 `
b0 q
#64001
b100 |
#65000
b1 +
b1 0
b1 `
b1 q
#66000
b10 +
b10 0
b10 `
b10 q
#67000
b11 +
b11 0
b11 `
b11 q
#68000
b100 +
b100 0
b100 `
b100 q
#69000
b101 +
b101 0
b101 `
b101 q
#70000
b110 +
b110 0
b110 `
b110 q
#71000
b111 +
b111 0
b111 `
b111 q
#72000
b1000 +
b1000 0
b1000 `
b1000 q
#73000
b1001 +
b1001 0
b1001 `
b1001 q
#74000
b1010 +
b1010 0
b1010 `
b1010 q
#75000
b1011 +
b1011 0
b1011 `
b1011 q
#76000
b1100 +
b1100 0
b1100 `
b1100 q
#77000
b1101 +
b1101 0
b1101 `
b1101 q
#78000
b1110 +
b1110 0
b1110 `
b1110 q
#79000
b1111 +
b1111 0
b1111 `
b1111 q
#80000
b101 $
b101 6
b101 x
1@
1A
b101 3
b101 w
b101 {
1=
b101 4
b101 9
b101 h
b101 t
b101 z
b101 e
b101 r
b101 s
b101 *
b101 /
b101 _
b101 n
b101 p
b0 +
b0 0
b0 `
b0 q
#80001
b101 |
#81000
b1 +
b1 0
b1 `
b1 q
#82000
b10 +
b10 0
b10 `
b10 q
#83000
b11 +
b11 0
b11 `
b11 q
#84000
b100 +
b100 0
b100 `
b100 q
#85000
b101 +
b101 0
b101 `
b101 q
#86000
b110 +
b110 0
b110 `
b110 q
#87000
b111 +
b111 0
b111 `
b111 q
#88000
b1000 +
b1000 0
b1000 `
b1000 q
#89000
b1001 +
b1001 0
b1001 `
b1001 q
#90000
b1010 +
b1010 0
b1010 `
b1010 q
#91000
b1011 +
b1011 0
b1011 `
b1011 q
#92000
b1100 +
b1100 0
b1100 `
b1100 q
#93000
b1101 +
b1101 0
b1101 `
b1101 q
#94000
b1110 +
b1110 0
b1110 `
b1110 q
#95000
b1111 +
b1111 0
b1111 `
b1111 q
#96000
b110 $
b110 6
b110 x
0@
0A
1I
1J
b110 3
b110 w
b110 {
0=
1F
b110 4
b110 9
b110 h
b110 t
b110 z
b110 e
b110 r
b110 s
b110 *
b110 /
b110 _
b110 n
b110 p
b0 +
b0 0
b0 `
b0 q
#96001
b110 |
#97000
b1 +
b1 0
b1 `
b1 q
#98000
b10 +
b10 0
b10 `
b10 q
#99000
b11 +
b11 0
b11 `
b11 q
#100000
b100 +
b100 0
b100 `
b100 q
#101000
b101 +
b101 0
b101 `
b101 q
#102000
b110 +
b110 0
b110 `
b110 q
#103000
b111 +
b111 0
b111 `
b111 q
#104000
b1000 +
b1000 0
b1000 `
b1000 q
#105000
b1001 +
b1001 0
b1001 `
b1001 q
#106000
b1010 +
b1010 0
b1010 `
b1010 q
#107000
b1011 +
b1011 0
b1011 `
b1011 q
#108000
b1100 +
b1100 0
b1100 `
b1100 q
#109000
b1101 +
b1101 0
b1101 `
b1101 q
#110000
b1110 +
b1110 0
b1110 `
b1110 q
#111000
b1111 +
b1111 0
b1111 `
b1111 q
#112000
b111 $
b111 6
b111 x
1@
1A
b111 3
b111 w
b111 {
1=
b111 4
b111 9
b111 h
b111 t
b111 z
b111 e
b111 r
b111 s
b111 *
b111 /
b111 _
b111 n
b111 p
b0 +
b0 0
b0 `
b0 q
#112001
b111 |
#113000
b1 +
b1 0
b1 `
b1 q
#114000
b10 +
b10 0
b10 `
b10 q
#115000
b11 +
b11 0
b11 `
b11 q
#116000
b100 +
b100 0
b100 `
b100 q
#117000
b101 +
b101 0
b101 `
b101 q
#118000
b110 +
b110 0
b110 `
b110 q
#119000
b111 +
b111 0
b111 `
b111 q
#120000
b1000 +
b1000 0
b1000 `
b1000 q
#121000
b1001 +
b1001 0
b1001 `
b1001 q
#122000
b1010 +
b1010 0
b1010 `
b1010 q
#123000
b1011 +
b1011 0
b1011 `
b1011 q
#124000
b1100 +
b1100 0
b1100 `
b1100 q
#125000
b1101 +
b1101 0
b1101 `
b1101 q
#126000
b1110 +
b1110 0
b1110 `
b1110 q
#127000
b1111 +
b1111 0
b1111 `
b1111 q
#128000
1"
b1000 $
b1000 6
b1000 x
0@
0A
0I
0J
0R
0S
1[
1\
b1000 3
b1000 w
b1000 {
0=
0F
0O
1X
b1000 4
b1000 9
b1000 h
b1000 t
b1000 z
b1000 e
b1000 r
b1000 s
b1000 *
b1000 /
b1000 _
b1000 n
b1000 p
b0 +
b0 0
b0 `
b0 q
#128001
1~
b1000 |
#129000
b1 +
b1 0
b1 `
b1 q
#130000
b10 +
b10 0
b10 `
b10 q
#131000
b11 +
b11 0
b11 `
b11 q
#132000
b100 +
b100 0
b100 `
b100 q
#133000
b101 +
b101 0
b101 `
b101 q
#134000
b110 +
b110 0
b110 `
b110 q
#135000
b111 +
b111 0
b111 `
b111 q
#136000
b1000 +
b1000 0
b1000 `
b1000 q
#137000
b1001 +
b1001 0
b1001 `
b1001 q
#138000
b1010 +
b1010 0
b1010 `
b1010 q
#139000
b1011 +
b1011 0
b1011 `
b1011 q
#140000
b1100 +
b1100 0
b1100 `
b1100 q
#141000
b1101 +
b1101 0
b1101 `
b1101 q
#142000
b1110 +
b1110 0
b1110 `
b1110 q
#143000
b1111 +
b1111 0
b1111 `
b1111 q
#144000
b1001 $
b1001 6
b1001 x
1@
1A
b1001 3
b1001 w
b1001 {
1=
b1001 4
b1001 9
b1001 h
b1001 t
b1001 z
b1001 e
b1001 r
b1001 s
b1001 *
b1001 /
b1001 _
b1001 n
b1001 p
b0 +
b0 0
b0 `
b0 q
#144001
b1001 |
#145000
b1 +
b1 0
b1 `
b1 q
#146000
b10 +
b10 0
b10 `
b10 q
#147000
b11 +
b11 0
b11 `
b11 q
#148000
b100 +
b100 0
b100 `
b100 q
#149000
b101 +
b101 0
b101 `
b101 q
#150000
b110 +
b110 0
b110 `
b110 q
#151000
b111 +
b111 0
b111 `
b111 q
#152000
b1000 +
b1000 0
b1000 `
b1000 q
#153000
b1001 +
b1001 0
b1001 `
b1001 q
#154000
b1010 +
b1010 0
b1010 `
b1010 q
#155000
b1011 +
b1011 0
b1011 `
b1011 q
#156000
b1100 +
b1100 0
b1100 `
b1100 q
#157000
b1101 +
b1101 0
b1101 `
b1101 q
#158000
b1110 +
b1110 0
b1110 `
b1110 q
#159000
b1111 +
b1111 0
b1111 `
b1111 q
#160000
b1010 $
b1010 6
b1010 x
0@
0A
1I
1J
b1010 3
b1010 w
b1010 {
0=
1F
b1010 4
b1010 9
b1010 h
b1010 t
b1010 z
b1010 e
b1010 r
b1010 s
b1010 *
b1010 /
b1010 _
b1010 n
b1010 p
b0 +
b0 0
b0 `
b0 q
#160001
b1010 |
#161000
b1 +
b1 0
b1 `
b1 q
#162000
b10 +
b10 0
b10 `
b10 q
#163000
b11 +
b11 0
b11 `
b11 q
#164000
b100 +
b100 0
b100 `
b100 q
#165000
b101 +
b101 0
b101 `
b101 q
#166000
b110 +
b110 0
b110 `
b110 q
#167000
b111 +
b111 0
b111 `
b111 q
#168000
b1000 +
b1000 0
b1000 `
b1000 q
#169000
b1001 +
b1001 0
b1001 `
b1001 q
#170000
b1010 +
b1010 0
b1010 `
b1010 q
#171000
b1011 +
b1011 0
b1011 `
b1011 q
#172000
b1100 +
b1100 0
b1100 `
b1100 q
#173000
b1101 +
b1101 0
b1101 `
b1101 q
#174000
b1110 +
b1110 0
b1110 `
b1110 q
#175000
b1111 +
b1111 0
b1111 `
b1111 q
#176000
b1011 $
b1011 6
b1011 x
1@
1A
b1011 3
b1011 w
b1011 {
1=
b1011 4
b1011 9
b1011 h
b1011 t
b1011 z
b1011 e
b1011 r
b1011 s
b1011 *
b1011 /
b1011 _
b1011 n
b1011 p
b0 +
b0 0
b0 `
b0 q
#176001
b1011 |
#177000
b1 +
b1 0
b1 `
b1 q
#178000
b10 +
b10 0
b10 `
b10 q
#179000
b11 +
b11 0
b11 `
b11 q
#180000
b100 +
b100 0
b100 `
b100 q
#181000
b101 +
b101 0
b101 `
b101 q
#182000
b110 +
b110 0
b110 `
b110 q
#183000
b111 +
b111 0
b111 `
b111 q
#184000
b1000 +
b1000 0
b1000 `
b1000 q
#185000
b1001 +
b1001 0
b1001 `
b1001 q
#186000
b1010 +
b1010 0
b1010 `
b1010 q
#187000
b1011 +
b1011 0
b1011 `
b1011 q
#188000
b1100 +
b1100 0
b1100 `
b1100 q
#189000
b1101 +
b1101 0
b1101 `
b1101 q
#190000
b1110 +
b1110 0
b1110 `
b1110 q
#191000
b1111 +
b1111 0
b1111 `
b1111 q
#192000
b1100 $
b1100 6
b1100 x
0@
0A
0I
0J
1R
1S
b1100 3
b1100 w
b1100 {
0=
0F
1O
b1100 4
b1100 9
b1100 h
b1100 t
b1100 z
b1100 e
b1100 r
b1100 s
b1100 *
b1100 /
b1100 _
b1100 n
b1100 p
b0 +
b0 0
b0 `
b0 q
#192001
b1100 |
#193000
b1 +
b1 0
b1 `
b1 q
#194000
b10 +
b10 0
b10 `
b10 q
#195000
b11 +
b11 0
b11 `
b11 q
#196000
b100 +
b100 0
b100 `
b100 q
#197000
b101 +
b101 0
b101 `
b101 q
#198000
b110 +
b110 0
b110 `
b110 q
#199000
b111 +
b111 0
b111 `
b111 q
#200000
b1000 +
b1000 0
b1000 `
b1000 q
#201000
b1001 +
b1001 0
b1001 `
b1001 q
#202000
b1010 +
b1010 0
b1010 `
b1010 q
#203000
b1011 +
b1011 0
b1011 `
b1011 q
#204000
b1100 +
b1100 0
b1100 `
b1100 q
#205000
b1101 +
b1101 0
b1101 `
b1101 q
#206000
b1110 +
b1110 0
b1110 `
b1110 q
#207000
b1111 +
b1111 0
b1111 `
b1111 q
#208000
b1101 $
b1101 6
b1101 x
1@
1A
b1101 3
b1101 w
b1101 {
1=
b1101 4
b1101 9
b1101 h
b1101 t
b1101 z
b1101 e
b1101 r
b1101 s
b1101 *
b1101 /
b1101 _
b1101 n
b1101 p
b0 +
b0 0
b0 `
b0 q
#208001
b1101 |
#209000
b1 +
b1 0
b1 `
b1 q
#210000
b10 +
b10 0
b10 `
b10 q
#211000
b11 +
b11 0
b11 `
b11 q
#212000
b100 +
b100 0
b100 `
b100 q
#213000
b101 +
b101 0
b101 `
b101 q
#214000
b110 +
b110 0
b110 `
b110 q
#215000
b111 +
b111 0
b111 `
b111 q
#216000
b1000 +
b1000 0
b1000 `
b1000 q
#217000
b1001 +
b1001 0
b1001 `
b1001 q
#218000
b1010 +
b1010 0
b1010 `
b1010 q
#219000
b1011 +
b1011 0
b1011 `
b1011 q
#220000
b1100 +
b1100 0
b1100 `
b1100 q
#221000
b1101 +
b1101 0
b1101 `
b1101 q
#222000
b1110 +
b1110 0
b1110 `
b1110 q
#223000
b1111 +
b1111 0
b1111 `
b1111 q
#224000
b1110 $
b1110 6
b1110 x
0@
0A
1I
1J
b1110 3
b1110 w
b1110 {
0=
1F
b1110 4
b1110 9
b1110 h
b1110 t
b1110 z
b1110 e
b1110 r
b1110 s
b1110 *
b1110 /
b1110 _
b1110 n
b1110 p
b0 +
b0 0
b0 `
b0 q
#224001
b1110 |
#225000
b1 +
b1 0
b1 `
b1 q
#226000
b10 +
b10 0
b10 `
b10 q
#227000
b11 +
b11 0
b11 `
b11 q
#228000
b100 +
b100 0
b100 `
b100 q
#229000
b101 +
b101 0
b101 `
b101 q
#230000
b110 +
b110 0
b110 `
b110 q
#231000
b111 +
b111 0
b111 `
b111 q
#232000
b1000 +
b1000 0
b1000 `
b1000 q
#233000
b1001 +
b1001 0
b1001 `
b1001 q
#234000
b1010 +
b1010 0
b1010 `
b1010 q
#235000
b1011 +
b1011 0
b1011 `
b1011 q
#236000
b1100 +
b1100 0
b1100 `
b1100 q
#237000
b1101 +
b1101 0
b1101 `
b1101 q
#238000
b1110 +
b1110 0
b1110 `
b1110 q
#239000
b1111 +
b1111 0
b1111 `
b1111 q
#240000
b1111 $
b1111 6
b1111 x
1@
1A
b1111 3
b1111 w
b1111 {
1=
b1111 4
b1111 9
b1111 h
b1111 t
b1111 z
b1111 e
b1111 r
b1111 s
b1111 *
b1111 /
b1111 _
b1111 n
b1111 p
b0 +
b0 0
b0 `
b0 q
#240001
b1111 |
#241000
b1 +
b1 0
b1 `
b1 q
#242000
b10 +
b10 0
b10 `
b10 q
#243000
b11 +
b11 0
b11 `
b11 q
#244000
b100 +
b100 0
b100 `
b100 q
#245000
b101 +
b101 0
b101 `
b101 q
#246000
b110 +
b110 0
b110 `
b110 q
#247000
b111 +
b111 0
b111 `
b111 q
#248000
b1000 +
b1000 0
b1000 `
b1000 q
#249000
b1001 +
b1001 0
b1001 `
b1001 q
#250000
b1010 +
b1010 0
b1010 `
b1010 q
#251000
b1011 +
b1011 0
b1011 `
b1011 q
#252000
b1100 +
b1100 0
b1100 `
b1100 q
#253000
b1101 +
b1101 0
b1101 `
b1101 q
#254000
b1110 +
b1110 0
b1110 `
b1110 q
#255000
b1111 +
b1111 0
b1111 `
b1111 q
#256000
0!
0@
0A
0I
0J
0R
0S
0[
0\
0"
0=
0F
0O
0X
b1 $
b1 6
b1 x
b0 4
b0 9
b0 h
b0 t
b0 z
b1 3
b1 w
b1 {
0#
b0 e
b0 r
b0 s
1-
b0 *
b0 /
b0 _
b0 n
b0 p
b0 +
b0 0
b0 `
b0 q
#256001
0~
b1 |
#257000
b1 +
b1 0
b1 `
b1 q
#258000
b10 +
b10 0
b10 `
b10 q
#259000
b11 +
b11 0
b11 `
b11 q
#260000
b100 +
b100 0
b100 `
b100 q
#261000
b101 +
b101 0
b101 `
b101 q
#262000
b110 +
b110 0
b110 `
b110 q
#263000
b111 +
b111 0
b111 `
b111 q
#264000
b1000 +
b1000 0
b1000 `
b1000 q
#265000
b1001 +
b1001 0
b1001 `
b1001 q
#266000
b1010 +
b1010 0
b1010 `
b1010 q
#267000
b1011 +
b1011 0
b1011 `
b1011 q
#268000
b1100 +
b1100 0
b1100 `
b1100 q
#269000
b1101 +
b1101 0
b1101 `
b1101 q
#270000
b1110 +
b1110 0
b1110 `
b1110 q
#271000
b1111 +
b1111 0
b1111 `
b1111 q
#272000
b10 $
b10 6
b10 x
1@
1A
b10 3
b10 w
b10 {
1=
b1 4
b1 9
b1 h
b1 t
b1 z
b1 e
b1 r
b1 s
b1 *
b1 /
b1 _
b1 n
b1 p
b0 +
b0 0
b0 `
b0 q
#272001
b10 |
#273000
b1 +
b1 0
b1 `
b1 q
#274000
b10 +
b10 0
b10 `
b10 q
#275000
b11 +
b11 0
b11 `
b11 q
#276000
b100 +
b100 0
b100 `
b100 q
#277000
b101 +
b101 0
b101 `
b101 q
#278000
b110 +
b110 0
b110 `
b110 q
#279000
b111 +
b111 0
b111 `
b111 q
#280000
b1000 +
b1000 0
b1000 `
b1000 q
#281000
b1001 +
b1001 0
b1001 `
b1001 q
#282000
b1010 +
b1010 0
b1010 `
b1010 q
#283000
b1011 +
b1011 0
b1011 `
b1011 q
#284000
b1100 +
b1100 0
b1100 `
b1100 q
#285000
b1101 +
b1101 0
b1101 `
b1101 q
#286000
b1110 +
b1110 0
b1110 `
b1110 q
#287000
b1111 +
b1111 0
b1111 `
b1111 q
#288000
b11 $
b11 6
b11 x
0@
0A
1I
1J
b11 3
b11 w
b11 {
0=
1F
b10 4
b10 9
b10 h
b10 t
b10 z
b10 e
b10 r
b10 s
b10 *
b10 /
b10 _
b10 n
b10 p
b0 +
b0 0
b0 `
b0 q
#288001
b11 |
#289000
b1 +
b1 0
b1 `
b1 q
#290000
b10 +
b10 0
b10 `
b10 q
#291000
b11 +
b11 0
b11 `
b11 q
#292000
b100 +
b100 0
b100 `
b100 q
#293000
b101 +
b101 0
b101 `
b101 q
#294000
b110 +
b110 0
b110 `
b110 q
#295000
b111 +
b111 0
b111 `
b111 q
#296000
b1000 +
b1000 0
b1000 `
b1000 q
#297000
b1001 +
b1001 0
b1001 `
b1001 q
#298000
b1010 +
b1010 0
b1010 `
b1010 q
#299000
b1011 +
b1011 0
b1011 `
b1011 q
#300000
b1100 +
b1100 0
b1100 `
b1100 q
#301000
b1101 +
b1101 0
b1101 `
b1101 q
#302000
b1110 +
b1110 0
b1110 `
b1110 q
#303000
b1111 +
b1111 0
b1111 `
b1111 q
#304000
b100 $
b100 6
b100 x
1@
1A
b100 3
b100 w
b100 {
1=
b11 4
b11 9
b11 h
b11 t
b11 z
b11 e
b11 r
b11 s
b11 *
b11 /
b11 _
b11 n
b11 p
b0 +
b0 0
b0 `
b0 q
#304001
b100 |
#305000
b1 +
b1 0
b1 `
b1 q
#306000
b10 +
b10 0
b10 `
b10 q
#307000
b11 +
b11 0
b11 `
b11 q
#308000
b100 +
b100 0
b100 `
b100 q
#309000
b101 +
b101 0
b101 `
b101 q
#310000
b110 +
b110 0
b110 `
b110 q
#311000
b111 +
b111 0
b111 `
b111 q
#312000
b1000 +
b1000 0
b1000 `
b1000 q
#313000
b1001 +
b1001 0
b1001 `
b1001 q
#314000
b1010 +
b1010 0
b1010 `
b1010 q
#315000
b1011 +
b1011 0
b1011 `
b1011 q
#316000
b1100 +
b1100 0
b1100 `
b1100 q
#317000
b1101 +
b1101 0
b1101 `
b1101 q
#318000
b1110 +
b1110 0
b1110 `
b1110 q
#319000
b1111 +
b1111 0
b1111 `
b1111 q
#320000
b101 $
b101 6
b101 x
0@
0A
0I
0J
1R
1S
b101 3
b101 w
b101 {
0=
0F
1O
b100 4
b100 9
b100 h
b100 t
b100 z
b100 e
b100 r
b100 s
b100 *
b100 /
b100 _
b100 n
b100 p
b0 +
b0 0
b0 `
b0 q
#320001
b101 |
#321000
b1 +
b1 0
b1 `
b1 q
#322000
b10 +
b10 0
b10 `
b10 q
#323000
b11 +
b11 0
b11 `
b11 q
#324000
b100 +
b100 0
b100 `
b100 q
#325000
b101 +
b101 0
b101 `
b101 q
#326000
b110 +
b110 0
b110 `
b110 q
#327000
b111 +
b111 0
b111 `
b111 q
#328000
b1000 +
b1000 0
b1000 `
b1000 q
#329000
b1001 +
b1001 0
b1001 `
b1001 q
#330000
b1010 +
b1010 0
b1010 `
b1010 q
#331000
b1011 +
b1011 0
b1011 `
b1011 q
#332000
b1100 +
b1100 0
b1100 `
b1100 q
#333000
b1101 +
b1101 0
b1101 `
b1101 q
#334000
b1110 +
b1110 0
b1110 `
b1110 q
#335000
b1111 +
b1111 0
b1111 `
b1111 q
#336000
b110 $
b110 6
b110 x
1@
1A
b110 3
b110 w
b110 {
1=
b101 4
b101 9
b101 h
b101 t
b101 z
b101 e
b101 r
b101 s
b101 *
b101 /
b101 _
b101 n
b101 p
b0 +
b0 0
b0 `
b0 q
#336001
b110 |
#337000
b1 +
b1 0
b1 `
b1 q
#338000
b10 +
b10 0
b10 `
b10 q
#339000
b11 +
b11 0
b11 `
b11 q
#340000
b100 +
b100 0
b100 `
b100 q
#341000
b101 +
b101 0
b101 `
b101 q
#342000
b110 +
b110 0
b110 `
b110 q
#343000
b111 +
b111 0
b111 `
b111 q
#344000
b1000 +
b1000 0
b1000 `
b1000 q
#345000
b1001 +
b1001 0
b1001 `
b1001 q
#346000
b1010 +
b1010 0
b1010 `
b1010 q
#347000
b1011 +
b1011 0
b1011 `
b1011 q
#348000
b1100 +
b1100 0
b1100 `
b1100 q
#349000
b1101 +
b1101 0
b1101 `
b1101 q
#350000
b1110 +
b1110 0
b1110 `
b1110 q
#351000
b1111 +
b1111 0
b1111 `
b1111 q
#352000
b111 $
b111 6
b111 x
0@
0A
1I
1J
b111 3
b111 w
b111 {
0=
1F
b110 4
b110 9
b110 h
b110 t
b110 z
b110 e
b110 r
b110 s
b110 *
b110 /
b110 _
b110 n
b110 p
b0 +
b0 0
b0 `
b0 q
#352001
b111 |
#353000
b1 +
b1 0
b1 `
b1 q
#354000
b10 +
b10 0
b10 `
b10 q
#355000
b11 +
b11 0
b11 `
b11 q
#356000
b100 +
b100 0
b100 `
b100 q
#357000
b101 +
b101 0
b101 `
b101 q
